期末/test.vcd
$date
	Sun Jun 04 21:21:22 2023
$end
$version
	Icarus Verilog
$end
$timescale
	1ns
$end
$scope module Cpu_tb $end
$scope module cpu $end
$var wire 1 ! clka $end
$var wire 1 " clkb $end
$var wire 1 # clkc $end
$var wire 9 $ pc [8:0] $end
$var wire 32 % memoryrd [31:0] $end
$var wire 1 & iszero $end
$var wire 64 ' hilo [63:0] $end
$var wire 32 ( alusrc [31:0] $end
$var wire 32 ) aludataOut [31:0] $end
$var reg 6 * Signal [5:0] $end
$var reg 32 + aludataOut_delaytemp [31:0] $end
$var reg 5 , hazard_0 [4:0] $end
$var reg 5 - hazard_1 [4:0] $end
$var reg 5 . hazard_2 [4:0] $end
$var reg 32 / immediate [31:0] $end
$var reg 32 0 immediate_delay1 [31:0] $end
$var reg 32 1 immediate_delay2 [31:0] $end
$var reg 1 2 iszero_delay1 $end
$var reg 32 3 rs [31:0] $end
$var reg 32 4 rt [31:0] $end
$var reg 32 5 rt_delaytemp [31:0] $end
$var reg 5 6 shamt [4:0] $end
$scope module alu $end
$var wire 6 7 Signal [5:0] $end
$var wire 32 8 a [31:0] $end
$var wire 1 ! clk $end
$var wire 32 9 dataA [31:0] $end
$var wire 32 : dataB [31:0] $end
$var wire 1 ; isadd $end
$var wire 1 < issub $end
$var wire 1 = itype $end
$var wire 5 > shamt [4:0] $end
$var wire 1 & zero $end
$var wire 32 ? wireor [31:0] $end
$var wire 32 @ wireand [31:0] $end
$var wire 32 A sum [31:0] $end
$var wire 32 B sltsignal [31:0] $end
$var wire 32 C shifterans [31:0] $end
$var wire 2 D select [1:0] $end
$var wire 1 E isslt $end
$var wire 1 F isor $end
$var wire 1 G isjustsub $end
$var wire 1 H isand $end
$var wire 64 I hilo [63:0] $end
$var wire 33 J carry [32:0] $end
$var wire 32 K b [31:0] $end
$var wire 32 L ans2 [31:0] $end
$var wire 32 M ans1 [31:0] $end
$var wire 32 N ans [31:0] $end
$var parameter 6 O ADD $end
$var parameter 6 P AND $end
$var parameter 6 Q OR $end
$var parameter 6 R SLT $end
$var parameter 6 S SUB $end
$var reg 32 T dataOut [31:0] $end
$var reg 1 U iszero $end
$scope module equal_array_6_1 $end
$var wire 6 V a [5:0] $end
$var wire 6 W b [5:0] $end
$var wire 1 G equ $end
$var wire 6 X eq [5:0] $end
$var wire 6 Y eor [5:0] $end
$upscope $end
$scope module equal_array_6_2 $end
$var wire 6 Z a [5:0] $end
$var wire 6 [ b [5:0] $end
$var wire 1 F equ $end
$var wire 6 \ eq [5:0] $end
$var wire 6 ] eor [5:0] $end
$upscope $end
$scope module equal_array_6_3 $end
$var wire 6 ^ a [5:0] $end
$var wire 6 _ b [5:0] $end
$var wire 1 H equ $end
$var wire 6 ` eq [5:0] $end
$var wire 6 a eor [5:0] $end
$upscope $end
$scope module equal_array_6_4 $end
$var wire 6 b a [5:0] $end
$var wire 6 c b [5:0] $end
$var wire 1 E equ $end
$var wire 6 d eq [5:0] $end
$var wire 6 e eor [5:0] $end
$upscope $end
$scope module fa_0 $end
$var wire 1 f a $end
$var wire 1 g b $end
$var wire 1 h cin $end
$var wire 1 i cout $end
$var wire 1 j cout_0 $end
$var wire 1 k cout_1 $end
$var wire 1 l cout_2 $end
$var wire 1 m cout_3 $end
$var wire 1 n sum $end
$var wire 1 o sum_0 $end
$upscope $end
$scope module fa_1 $end
$var wire 1 p a $end
$var wire 1 q b $end
$var wire 1 r cin $end
$var wire 1 s cout $end
$var wire 1 t cout_0 $end
$var wire 1 u cout_1 $end
$var wire 1 v cout_2 $end
$var wire 1 w cout_3 $end
$var wire 1 x sum $end
$var wire 1 y sum_0 $end
$upscope $end
$scope module fa_10 $end
$var wire 1 z a $end
$var wire 1 { b $end
$var wire 1 | cin $end
$var wire 1 } cout $end
$var wire 1 ~ cout_0 $end
$var wire 1 !" cout_1 $end
$var wire 1 "" cout_2 $end
$var wire 1 #" cout_3 $end
$var wire 1 $" sum $end
$var wire 1 %" sum_0 $end
$upscope $end
$scope module fa_11 $end
$var wire 1 &" a $end
$var wire 1 '" b $end
$var wire 1 (" cin $end
$var wire 1 )" cout $end
$var wire 1 *" cout_0 $end
$var wire 1 +" cout_1 $end
$var wire 1 ," cout_2 $end
$var wire 1 -" cout_3 $end
$var wire 1 ." sum $end
$var wire 1 /" sum_0 $end
$upscope $end
$scope module fa_12 $end
$var wire 1 0" a $end
$var wire 1 1" b $end
$var wire 1 2" cin $end
$var wire 1 3" cout $end
$var wire 1 4" cout_0 $end
$var wire 1 5" cout_1 $end
$var wire 1 6" cout_2 $end
$var wire 1 7" cout_3 $end
$var wire 1 8" sum $end
$var wire 1 9" sum_0 $end
$upscope $end
$scope module fa_13 $end
$var wire 1 :" a $end
$var wire 1 ;" b $end
$var wire 1 <" cin $end
$var wire 1 =" cout $end
$var wire 1 >" cout_0 $end
$var wire 1 ?" cout_1 $end
$var wire 1 @" cout_2 $end
$var wire 1 A" cout_3 $end
$var wire 1 B" sum $end
$var wire 1 C" sum_0 $end
$upscope $end
$scope module fa_14 $end
$var wire 1 D" a $end
$var wire 1 E" b $end
$var wire 1 F" cin $end
$var wire 1 G" cout $end
$var wire 1 H" cout_0 $end
$var wire 1 I" cout_1 $end
$var wire 1 J" cout_2 $end
$var wire 1 K" cout_3 $end
$var wire 1 L" sum $end
$var wire 1 M" sum_0 $end
$upscope $end
$scope module fa_15 $end
$var wire 1 N" a $end
$var wire 1 O" b $end
$var wire 1 P" cin $end
$var wire 1 Q" cout $end
$var wire 1 R" cout_0 $end
$var wire 1 S" cout_1 $end
$var wire 1 T" cout_2 $end
$var wire 1 U" cout_3 $end
$var wire 1 V" sum $end
$var wire 1 W" sum_0 $end
$upscope $end
$scope module fa_16 $end
$var wire 1 X" a $end
$var wire 1 Y" b $end
$var wire 1 Z" cin $end
$var wire 1 [" cout $end
$var wire 1 \" cout_0 $end
$var wire 1 ]" cout_1 $end
$var wire 1 ^" cout_2 $end
$var wire 1 _" cout_3 $end
$var wire 1 `" sum $end
$var wire 1 a" sum_0 $end
$upscope $end
$scope module fa_17 $end
$var wire 1 b" a $end
$var wire 1 c" b $end
$var wire 1 d" cin $end
$var wire 1 e" cout $end
$var wire 1 f" cout_0 $end
$var wire 1 g" cout_1 $end
$var wire 1 h" cout_2 $end
$var wire 1 i" cout_3 $end
$var wire 1 j" sum $end
$var wire 1 k" sum_0 $end
$upscope $end
$scope module fa_18 $end
$var wire 1 l" a $end
$var wire 1 m" b $end
$var wire 1 n" cin $end
$var wire 1 o" cout $end
$var wire 1 p" cout_0 $end
$var wire 1 q" cout_1 $end
$var wire 1 r" cout_2 $end
$var wire 1 s" cout_3 $end
$var wire 1 t" sum $end
$var wire 1 u" sum_0 $end
$upscope $end
$scope module fa_19 $end
$var wire 1 v" a $end
$var wire 1 w" b $end
$var wire 1 x" cin $end
$var wire 1 y" cout $end
$var wire 1 z" cout_0 $end
$var wire 1 {" cout_1 $end
$var wire 1 |" cout_2 $end
$var wire 1 }" cout_3 $end
$var wire 1 ~" sum $end
$var wire 1 !# sum_0 $end
$upscope $end
$scope module fa_2 $end
$var wire 1 "# a $end
$var wire 1 ## b $end
$var wire 1 $# cin $end
$var wire 1 %# cout $end
$var wire 1 &# cout_0 $end
$var wire 1 '# cout_1 $end
$var wire 1 (# cout_2 $end
$var wire 1 )# cout_3 $end
$var wire 1 *# sum $end
$var wire 1 +# sum_0 $end
$upscope $end
$scope module fa_20 $end
$var wire 1 ,# a $end
$var wire 1 -# b $end
$var wire 1 .# cin $end
$var wire 1 /# cout $end
$var wire 1 0# cout_0 $end
$var wire 1 1# cout_1 $end
$var wire 1 2# cout_2 $end
$var wire 1 3# cout_3 $end
$var wire 1 4# sum $end
$var wire 1 5# sum_0 $end
$upscope $end
$scope module fa_21 $end
$var wire 1 6# a $end
$var wire 1 7# b $end
$var wire 1 8# cin $end
$var wire 1 9# cout $end
$var wire 1 :# cout_0 $end
$var wire 1 ;# cout_1 $end
$var wire 1 <# cout_2 $end
$var wire 1 =# cout_3 $end
$var wire 1 ># sum $end
$var wire 1 ?# sum_0 $end
$upscope $end
$scope module fa_22 $end
$var wire 1 @# a $end
$var wire 1 A# b $end
$var wire 1 B# cin $end
$var wire 1 C# cout $end
$var wire 1 D# cout_0 $end
$var wire 1 E# cout_1 $end
$var wire 1 F# cout_2 $end
$var wire 1 G# cout_3 $end
$var wire 1 H# sum $end
$var wire 1 I# sum_0 $end
$upscope $end
$scope module fa_23 $end
$var wire 1 J# a $end
$var wire 1 K# b $end
$var wire 1 L# cin $end
$var wire 1 M# cout $end
$var wire 1 N# cout_0 $end
$var wire 1 O# cout_1 $end
$var wire 1 P# cout_2 $end
$var wire 1 Q# cout_3 $end
$var wire 1 R# sum $end
$var wire 1 S# sum_0 $end
$upscope $end
$scope module fa_24 $end
$var wire 1 T# a $end
$var wire 1 U# b $end
$var wire 1 V# cin $end
$var wire 1 W# cout $end
$var wire 1 X# cout_0 $end
$var wire 1 Y# cout_1 $end
$var wire 1 Z# cout_2 $end
$var wire 1 [# cout_3 $end
$var wire 1 \# sum $end
$var wire 1 ]# sum_0 $end
$upscope $end
$scope module fa_25 $end
$var wire 1 ^# a $end
$var wire 1 _# b $end
$var wire 1 `# cin $end
$var wire 1 a# cout $end
$var wire 1 b# cout_0 $end
$var wire 1 c# cout_1 $end
$var wire 1 d# cout_2 $end
$var wire 1 e# cout_3 $end
$var wire 1 f# sum $end
$var wire 1 g# sum_0 $end
$upscope $end
$scope module fa_26 $end
$var wire 1 h# a $end
$var wire 1 i# b $end
$var wire 1 j# cin $end
$var wire 1 k# cout $end
$var wire 1 l# cout_0 $end
$var wire 1 m# cout_1 $end
$var wire 1 n# cout_2 $end
$var wire 1 o# cout_3 $end
$var wire 1 p# sum $end
$var wire 1 q# sum_0 $end
$upscope $end
$scope module fa_27 $end
$var wire 1 r# a $end
$var wire 1 s# b $end
$var wire 1 t# cin $end
$var wire 1 u# cout $end
$var wire 1 v# cout_0 $end
$var wire 1 w# cout_1 $end
$var wire 1 x# cout_2 $end
$var wire 1 y# cout_3 $end
$var wire 1 z# sum $end
$var wire 1 {# sum_0 $end
$upscope $end
$scope module fa_28 $end
$var wire 1 |# a $end
$var wire 1 }# b $end
$var wire 1 ~# cin $end
$var wire 1 !$ cout $end
$var wire 1 "$ cout_0 $end
$var wire 1 #$ cout_1 $end
$var wire 1 $$ cout_2 $end
$var wire 1 %$ cout_3 $end
$var wire 1 &$ sum $end
$var wire 1 '$ sum_0 $end
$upscope $end
$scope module fa_29 $end
$var wire 1 ($ a $end
$var wire 1 )$ b $end
$var wire 1 *$ cin $end
$var wire 1 +$ cout $end
$var wire 1 ,$ cout_0 $end
$var wire 1 -$ cout_1 $end
$var wire 1 .$ cout_2 $end
$var wire 1 /$ cout_3 $end
$var wire 1 0$ sum $end
$var wire 1 1$ sum_0 $end
$upscope $end
$scope module fa_3 $end
$var wire 1 2$ a $end
$var wire 1 3$ b $end
$var wire 1 4$ cin $end
$var wire 1 5$ cout $end
$var wire 1 6$ cout_0 $end
$var wire 1 7$ cout_1 $end
$var wire 1 8$ cout_2 $end
$var wire 1 9$ cout_3 $end
$var wire 1 :$ sum $end
$var wire 1 ;$ sum_0 $end
$upscope $end
$scope module fa_30 $end
$var wire 1 <$ a $end
$var wire 1 =$ b $end
$var wire 1 >$ cin $end
$var wire 1 ?$ cout $end
$var wire 1 @$ cout_0 $end
$var wire 1 A$ cout_1 $end
$var wire 1 B$ cout_2 $end
$var wire 1 C$ cout_3 $end
$var wire 1 D$ sum $end
$var wire 1 E$ sum_0 $end
$upscope $end
$scope module fa_31 $end
$var wire 1 F$ a $end
$var wire 1 G$ b $end
$var wire 1 H$ cin $end
$var wire 1 I$ cout $end
$var wire 1 J$ cout_0 $end
$var wire 1 K$ cout_1 $end
$var wire 1 L$ cout_2 $end
$var wire 1 M$ cout_3 $end
$var wire 1 N$ sum $end
$var wire 1 O$ sum_0 $end
$upscope $end
$scope module fa_4 $end
$var wire 1 P$ a $end
$var wire 1 Q$ b $end
$var wire 1 R$ cin $end
$var wire 1 S$ cout $end
$var wire 1 T$ cout_0 $end
$var wire 1 U$ cout_1 $end
$var wire 1 V$ cout_2 $end
$var wire 1 W$ cout_3 $end
$var wire 1 X$ sum $end
$var wire 1 Y$ sum_0 $end
$upscope $end
$scope module fa_5 $end
$var wire 1 Z$ a $end
$var wire 1 [$ b $end
$var wire 1 \$ cin $end
$var wire 1 ]$ cout $end
$var wire 1 ^$ cout_0 $end
$var wire 1 _$ cout_1 $end
$var wire 1 `$ cout_2 $end
$var wire 1 a$ cout_3 $end
$var wire 1 b$ sum $end
$var wire 1 c$ sum_0 $end
$upscope $end
$scope module fa_6 $end
$var wire 1 d$ a $end
$var wire 1 e$ b $end
$var wire 1 f$ cin $end
$var wire 1 g$ cout $end
$var wire 1 h$ cout_0 $end
$var wire 1 i$ cout_1 $end
$var wire 1 j$ cout_2 $end
$var wire 1 k$ cout_3 $end
$var wire 1 l$ sum $end
$var wire 1 m$ sum_0 $end
$upscope $end
$scope module fa_7 $end
$var wire 1 n$ a $end
$var wire 1 o$ b $end
$var wire 1 p$ cin $end
$var wire 1 q$ cout $end
$var wire 1 r$ cout_0 $end
$var wire 1 s$ cout_1 $end
$var wire 1 t$ cout_2 $end
$var wire 1 u$ cout_3 $end
$var wire 1 v$ sum $end
$var wire 1 w$ sum_0 $end
$upscope $end
$scope module fa_8 $end
$var wire 1 x$ a $end
$var wire 1 y$ b $end
$var wire 1 z$ cin $end
$var wire 1 {$ cout $end
$var wire 1 |$ cout_0 $end
$var wire 1 }$ cout_1 $end
$var wire 1 ~$ cout_2 $end
$var wire 1 !% cout_3 $end
$var wire 1 "% sum $end
$var wire 1 #% sum_0 $end
$upscope $end
$scope module fa_9 $end
$var wire 1 $% a $end
$var wire 1 %% b $end
$var wire 1 &% cin $end
$var wire 1 '% cout $end
$var wire 1 (% cout_0 $end
$var wire 1 )% cout_1 $end
$var wire 1 *% cout_2 $end
$var wire 1 +% cout_3 $end
$var wire 1 ,% sum $end
$var wire 1 -% sum_0 $end
$upscope $end
$scope module mux_2to1_array $end
$var wire 32 .% in0 [31:0] $end
$var wire 32 /% in1 [31:0] $end
$var wire 1 0% sel $end
$var wire 32 1% out [31:0] $end
$upscope $end
$scope module mux_4to1_array $end
$var wire 32 2% in0 [31:0] $end
$var wire 32 3% in1 [31:0] $end
$var wire 32 4% in2 [31:0] $end
$var wire 32 5% in3 [31:0] $end
$var wire 2 6% sel [1:0] $end
$var wire 32 7% out [31:0] $end
$upscope $end
$scope module shifter $end
$var wire 32 8% dataA [31:0] $end
$var wire 5 9% dataB [4:0] $end
$var wire 32 :% dataOut [31:0] $end
$upscope $end
$upscope $end
$scope module memory $end
$var wire 1 ;% MemRead $end
$var wire 1 <% MemWrite $end
$var wire 32 =% addr [31:0] $end
$var wire 1 ! clk $end
$var wire 32 >% outrd [31:0] $end
$var wire 32 ?% wd [31:0] $end
$var reg 32 @% rd [31:0] $end
$upscope $end
$scope module mul $end
$var wire 32 A% Signal [31:0] $end
$var wire 1 ! clka $end
$var wire 1 " clkb $end
$var wire 32 B% dataA [31:0] $end
$var wire 32 C% dataB [31:0] $end
$var wire 64 D% dataOut [63:0] $end
$var reg 7 E% count [6:0] $end
$var reg 64 F% mcnd [63:0] $end
$var reg 32 G% mpr [31:0] $end
$var reg 64 H% temp [63:0] $end
$upscope $end
$upscope $end
$upscope $end
$enddefinitions $end
$comment Show the parameter values. $end
$dumpall
b100010 S
b101010 R
b100101 Q
b100100 P
b100000 O
$end
#0
$dumpvars
b0 H%
bx G%
bx F%
b0 E%
b0 D%
bx C%
bx B%
bx A%
bx @%
bx ?%
bx >%
bx =%
x<%
x;%
bx :%
bx 9%
bx 8%
bx 7%
bx 6%
b0x 5%
bx 4%
bx 3%
bx 2%
b0x 1%
x0%
b1 /%
b0 .%
x-%
x,%
x+%
x*%
x)%
x(%
x'%
x&%
x%%
x$%
x#%
x"%
x!%
x~$
x}$
x|$
x{$
xz$
xy$
xx$
xw$
xv$
xu$
xt$
xs$
xr$
xq$
xp$
xo$
xn$
xm$
xl$
xk$
xj$
xi$
xh$
xg$
xf$
xe$
xd$
xc$
xb$
xa$
x`$
x_$
x^$
x]$
x\$
x[$
xZ$
xY$
xX$
xW$
xV$
xU$
xT$
xS$
xR$
xQ$
xP$
xO$
xN$
xM$
xL$
xK$
xJ$
xI$
xH$
xG$
xF$
xE$
xD$
xC$
xB$
xA$
x@$
x?$
x>$
x=$
x<$
x;$
x:$
x9$
x8$
x7$
x6$
x5$
x4$
x3$
x2$
x1$
x0$
x/$
x.$
x-$
x,$
x+$
x*$
x)$
x($
x'$
x&$
x%$
x$$
x#$
x"$
x!$
x~#
x}#
x|#
x{#
xz#
xy#
xx#
xw#
xv#
xu#
xt#
xs#
xr#
xq#
xp#
xo#
xn#
xm#
xl#
xk#
xj#
xi#
xh#
xg#
xf#
xe#
xd#
xc#
xb#
xa#
x`#
x_#
x^#
x]#
x\#
x[#
xZ#
xY#
xX#
xW#
xV#
xU#
xT#
xS#
xR#
xQ#
xP#
xO#
xN#
xM#
xL#
xK#
xJ#
xI#
xH#
xG#
xF#
xE#
xD#
xC#
xB#
xA#
x@#
x?#
x>#
x=#
x<#
x;#
x:#
x9#
x8#
x7#
x6#
x5#
x4#
x3#
x2#
x1#
x0#
x/#
x.#
x-#
x,#
x+#
x*#
x)#
x(#
x'#
x&#
x%#
x$#
x##
x"#
x!#
x~"
x}"
x|"
x{"
xz"
xy"
xx"
xw"
xv"
xu"
xt"
xs"
xr"
xq"
xp"
xo"
xn"
xm"
xl"
xk"
xj"
xi"
xh"
xg"
xf"
xe"
xd"
xc"
xb"
xa"
x`"
x_"
x^"
x]"
x\"
x["
xZ"
xY"
xX"
xW"
xV"
xU"
xT"
xS"
xR"
xQ"
xP"
xO"
xN"
xM"
xL"
xK"
xJ"
xI"
xH"
xG"
xF"
xE"
xD"
xC"
xB"
xA"
x@"
x?"
x>"
x="
x<"
x;"
x:"
x9"
x8"
x7"
x6"
x5"
x4"
x3"
x2"
x1"
x0"
x/"
x."
x-"
x,"
x+"
x*"
x)"
x("
x'"
x&"
x%"
x$"
x#"
x""
x!"
x~
x}
x|
x{
xz
xy
xx
xw
xv
xu
xt
xs
xr
xq
xp
xo
xn
xm
xl
xk
xj
xi
xh
xg
xf
bx e
bzxxxxx d
b101010 c
bx b
bx a
bzxxxxx `
b100100 _
bx ^
bx ]
bzxxxxx \
b100101 [
bx Z
bx Y
bzxxxxx X
b100010 W
bx V
xU
bx T
bx N
bx M
bx L
bx K
bx J
b0 I
xH
xG
xF
xE
bx D
bx C
b0x B
bx A
bx @
bx ?
bx >
x=
x<
x;
bx :
bx 9
bx 8
bx 7
bx 6
bx 5
bx 4
bx 3
x2
bx 1
bx 0
bx /
bx .
bx -
bx ,
bx +
bx *
bx )
bx (
b0 '
x&
bx %
b0 $
z#
0"
0!
$end
#1
1"
#2
0"
#3
1"
#4
b100 $
b0 ,
0"
1!
#5
1"
#6
0"
#7
1"
#8
0"
#9
1"
#10
0"
#11
1"
#12
0"
#13
1"
#14
0"
#15
1"
#16
0"
#17
1"
#18
0"
#19
1"
#20
0"
#21
1"
#22
0"
#23
1"
#24
0"
#25
1"
#26
0"
#27
1"
#28
0"
#29
1"
#30
0"
#31
1"
#32
0"
#33
1"
#34
0"
#35
1"
#36
0"
#37
1"
#38
0"
#39
1"
#40
0"
#41
1"
#42
0"
#43
1"
#44
0"
#45
1"
#46
0"
#47
1"
#48
0"
#49
1"
#50
0"
#51
1"
#52
0"
#53
1"
#54
0"
#55
1"
#56
0"
#57
1"
#58
0"
#59
1"
#60
0"
#61
1"
#62
0"
#63
1"
#64
0"
#65
1"
#66
0"
#67
1"
#68
0"
#69
1"
#70
0"
#71
1"
#72
0"
#73
1"
#74
0"
#75
1"
#76
0"
#77
1"
#78
0"
#79
1"
#80
0"
0!
#81
1"
#82
0"
#83
1"
#84
0*#
b11 L
0$#
b11 M
0s
b0 B
b0 1%
b0 5%
0v
1x
00%
0r
b11 N
b11 7%
0:$
0X$
0b$
0l$
0v$
0"%
0,%
0$"
0."
08"
0B"
0L"
0V"
0`"
0j"
0t"
0~"
04#
0>#
0H#
0R#
0\#
0f#
0p#
0z#
0&$
00$
0D$
0N$
0i
04$
0R$
0\$
0f$
0p$
0z$
0&%
0|
0("
02"
0<"
0F"
0P"
0Z"
0d"
0n"
0x"
0.#
08#
0B#
0L#
0V#
0`#
0j#
0t#
0~#
0*$
0>$
0H$
0m
b11 A
b11 2%
1n
0%#
05$
0S$
0]$
0g$
0q$
0{$
0'%
0}
0)"
03"
0="
0G"
0Q"
0["
0e"
0o"
0y"
0/#
09#
0C#
0M#
0W#
0a#
0k#
0u#
0!$
0+$
0?$
0I$
0j
1o
1y
0(#
0+#
08$
0;$
0V$
0Y$
0`$
0c$
0j$
0m$
0t$
0w$
0~$
0#%
0*%
0-%
0""
0%"
0,"
0/"
06"
09"
0@"
0C"
0J"
0M"
0T"
0W"
0^"
0a"
0h"
0k"
0r"
0u"
0|"
0!#
02#
05#
0<#
0?#
0F#
0I#
0P#
0S#
0Z#
0]#
0d#
0g#
0n#
0q#
0x#
0{#
0$$
0'$
0.$
01$
0B$
0E$
0L$
0O$
0g
1q
0##
03$
0Q$
0[$
0e$
0o$
0y$
0%%
0{
0'"
01"
0;"
0E"
0O"
0Y"
0c"
0m"
0w"
0-#
07#
0A#
0K#
0U#
0_#
0i#
0s#
0}#
0)$
0=$
0G$
0k
0l
b10 K
0h
b10 C
b10 :%
b0 D
b0 6%
b0 J
0<
0G
0F
0H
0E
bz11001 X
bz11011 \
bz11010 `
bz11011 d
0w
0)#
09$
0W$
0a$
0k$
0u$
0!%
0+%
0#"
0-"
07"
0A"
0K"
0U"
0_"
0i"
0s"
0}"
03#
0=#
0G#
0Q#
0[#
0e#
0o#
0y#
0%$
0/$
0C$
0M$
b10 Y
b101 ]
b100 a
b1010 e
b10 (
b10 :
b10 8%
b11 ?
b11 3%
0t
0u
0&#
0'#
06$
07$
0T$
0U$
0^$
0_$
0h$
0i$
0r$
0s$
0|$
0}$
0(%
0)%
0~
0!"
0*"
0+"
04"
05"
0>"
0?"
0H"
0I"
0R"
0S"
0\"
0]"
0f"
0g"
0p"
0q"
0z"
0{"
00#
01#
0:#
0;#
0D#
0E#
0N#
0O#
0X#
0Y#
0b#
0c#
0l#
0m#
0v#
0w#
0"$
0#$
0,$
0-$
0@$
0A$
0J$
0K$
b0 @
b0 4%
b1000 $
1;
1f
0p
0"#
02$
0P$
0Z$
0d$
0n$
0x$
0$%
0z
0&"
00"
0:"
0D"
0N"
0X"
0b"
0l"
0v"
0,#
06#
0@#
0J#
0T#
0^#
0h#
0r#
0|#
0($
0<$
0F$
b0 -
b11000 ,
b11111111111111111100000000100000 /
b100000 *
b100000 7
b100000 V
b100000 Z
b100000 ^
b100000 b
b0 6
b0 >
b0 9%
b10 4
b10 C%
b1 8
b1 3
b1 9
b1 B%
b1000101100000000100000 A%
0"
1!
#85
1"
#86
0"
#87
1"
#88
0"
#89
1"
#90
0"
#91
1"
#92
0"
#93
1"
#94
0"
#95
1"
#96
0"
#97
1"
#98
0"
#99
1"
#100
0"
#101
1"
#102
0"
#103
1"
#104
0"
#105
1"
#106
0"
#107
1"
#108
0"
#109
1"
#110
0"
#111
1"
#112
0"
#113
1"
#114
0"
#115
1"
#116
0"
#117
1"
#118
0"
#119
1"
#120
0"
#121
1"
#122
0"
#123
1"
#124
0"
#125
1"
#126
0"
#127
1"
#128
0"
#129
1"
#130
0"
#131
1"
#132
0"
#133
1"
#134
0"
#135
1"
#136
0"
#137
1"
#138
0"
#139
1"
#140
0"
#141
1"
#142
0"
#143
1"
#144
0"
#145
1"
#146
0"
#147
1"
#148
0"
#149
1"
#150
0"
#151
1"
#152
0"
#153
1"
#154
0"
#155
1"
#156
0"
#157
1"
#158
0"
#159
1"
#160
b100 $
0"
0!
#161
1"
#162
0"
#163
1"
#164
b0 C
b0 :%
b0 M
0x
0y
0q
b0 N
b0 7%
0=
bz11101 X
bz11111 \
bz11110 `
bz11111 d
b0 K
b0 L
b0 A
b0 2%
0n
b100010 Y
b100101 ]
b100100 a
b101010 e
b0 (
b0 :
b0 8%
0o
b0 ?
b0 3%
b1000 $
0;%
0<%
0;
0f
0&
0U
b11 )
b11 T
b11 =%
b11111111111111111100000000100000 0
b10 5
b10 ?%
b0 .
b11000 -
b0 ,
b0 /
b0 *
b0 7
b0 V
b0 Z
b0 ^
b0 b
b0 4
b0 C%
b0 8
b0 3
b0 9
b0 B%
b0 A%
0"
1!
#165
1"
#166
0"
#167
1"
#168
0"
#169
1"
#170
0"
#171
1"
#172
0"
#173
1"
#174
0"
#175
1"
#176
0"
#177
1"
#178
0"
#179
1"
#180
0"
#181
1"
#182
0"
#183
1"
#184
0"
#185
1"
#186
0"
#187
1"
#188
0"
#189
1"
#190
0"
#191
1"
#192
0"
#193
1"
#194
0"
#195
1"
#196
0"
#197
1"
#198
0"
#199
1"
#200
0"
#201
1"
#202
0"
#203
1"
#204
0"
#205
1"
#206
0"
#207
1"
#208
0"
#209
1"
#210
0"
#211
1"
#212
0"
#213
1"
#214
0"
#215
1"
#216
0"
#217
1"
#218
0"
#219
1"
#220
0"
#221
1"
#222
0"
#223
1"
#224
0"
#225
1"
#226
0"
#227
1"
#228
0"
#229
1"
#230
0"
#231
1"
#232
0"
#233
1"
#234
0"
#235
1"
#236
0"
#237
1"
#238
0"
#239
1"
#240
b100 $
0"
0!
#241
1"
#242
0"
#243
1"
#244
b1000 $
02
b11111111111111111100000000100000 1
b11 +
b0 0
b0 5
b0 ?%
b11000 .
b0 -
1&
1U
b0 )
b0 T
b0 =%
0"
1!
#245
1"
#246
0"
#247
1"
#248
0"
#249
1"
#250
0"
#251
1"
#252
0"
#253
1"
#254
0"
#255
1"
#256
0"
#257
1"
#258
0"
#259
1"
#260
0"
#261
1"
#262
0"
#263
1"
#264
0"
#265
1"
#266
0"
#267
1"
#268
0"
#269
1"
#270
0"
#271
1"
#272
0"
#273
1"
#274
0"
#275
1"
#276
0"
#277
1"
#278
0"
#279
1"
#280
0"
#281
1"
#282
0"
#283
1"
#284
0"
#285
1"
#286
0"
#287
1"
#288
0"
#289
1"
#290
0"
#291
1"
#292
0"
#293
1"
#294
0"
#295
1"
#296
0"
#297
1"
#298
0"
#299
1"
#300
0"
#301
1"
#302
0"
#303
1"
#304
0"
#305
1"
#306
0"
#307
1"
#308
0"
#309
1"
#310
0"
#311
1"
#312
0"
#313
1"
#314
0"
#315
1"
#316
0"
#317
1"
#318
0"
#319
1"
#320
b100 $
0"
0!
#321
1"
#322
0"
#323
1"
#324
b1000 $
12
b0 1
b0 +
b0 .
0"
1!
