期末/test.vcd
$date
	Sat Jun 03 17:19:49 2023
$end
$version
	Icarus Verilog
$end
$timescale
	1ns
$end
$scope module Cpu_tb $end
$scope module cpu $end
$var wire 1 ! clka $end
$var wire 1 " clkb $end
$var wire 1 # clkc $end
$var wire 9 $ pc [8:0] $end
$var wire 32 % memoryrd [31:0] $end
$var wire 1 & iszero $end
$var wire 64 ' hilo [63:0] $end
$var wire 32 ( alusrc [31:0] $end
$var wire 32 ) aludataOut [31:0] $end
$var reg 6 * Signal [5:0] $end
$var reg 32 + aludataOut_delaytemp [31:0] $end
$var reg 5 , hazard_0 [4:0] $end
$var reg 5 - hazard_1 [4:0] $end
$var reg 5 . hazard_2 [4:0] $end
$var reg 5 / hazard_3 [4:0] $end
$var reg 32 0 immediate [31:0] $end
$var reg 32 1 immediate_delay1 [31:0] $end
$var reg 32 2 immediate_delay2 [31:0] $end
$var reg 1 3 iszero_delay1 $end
$var reg 32 4 rs [31:0] $end
$var reg 32 5 rt [31:0] $end
$var reg 32 6 rt_delaytemp [31:0] $end
$var reg 5 7 shamt [4:0] $end
$scope module alu $end
$var wire 6 8 Signal [5:0] $end
$var wire 32 9 a [31:0] $end
$var wire 1 ! clk $end
$var wire 32 : dataA [31:0] $end
$var wire 32 ; dataB [31:0] $end
$var wire 1 < isadd $end
$var wire 1 = issub $end
$var wire 1 > itype $end
$var wire 5 ? shamt [4:0] $end
$var wire 1 & zero $end
$var wire 32 @ wireor [31:0] $end
$var wire 32 A wireand [31:0] $end
$var wire 32 B sum [31:0] $end
$var wire 32 C sltsignal [31:0] $end
$var wire 32 D shifterans [31:0] $end
$var wire 2 E select [1:0] $end
$var wire 1 F isslt $end
$var wire 1 G isor $end
$var wire 1 H isjustsub $end
$var wire 1 I isand $end
$var wire 64 J hilo [63:0] $end
$var wire 33 K carry [32:0] $end
$var wire 32 L b [31:0] $end
$var wire 32 M ans2 [31:0] $end
$var wire 32 N ans1 [31:0] $end
$var wire 32 O ans [31:0] $end
$var parameter 6 P ADD $end
$var parameter 6 Q AND $end
$var parameter 6 R OR $end
$var parameter 6 S SLT $end
$var parameter 6 T SUB $end
$var reg 32 U dataOut [31:0] $end
$var reg 1 V iszero $end
$scope module equal_array_6_1 $end
$var wire 6 W a [5:0] $end
$var wire 6 X b [5:0] $end
$var wire 1 H equ $end
$var wire 6 Y eq [5:0] $end
$var wire 6 Z eor [5:0] $end
$upscope $end
$scope module equal_array_6_2 $end
$var wire 6 [ a [5:0] $end
$var wire 6 \ b [5:0] $end
$var wire 1 G equ $end
$var wire 6 ] eq [5:0] $end
$var wire 6 ^ eor [5:0] $end
$upscope $end
$scope module equal_array_6_3 $end
$var wire 6 _ a [5:0] $end
$var wire 6 ` b [5:0] $end
$var wire 1 I equ $end
$var wire 6 a eq [5:0] $end
$var wire 6 b eor [5:0] $end
$upscope $end
$scope module equal_array_6_4 $end
$var wire 6 c a [5:0] $end
$var wire 6 d b [5:0] $end
$var wire 1 F equ $end
$var wire 6 e eq [5:0] $end
$var wire 6 f eor [5:0] $end
$upscope $end
$scope module fa_0 $end
$var wire 1 g a $end
$var wire 1 h b $end
$var wire 1 i cin $end
$var wire 1 j cout $end
$var wire 1 k cout_0 $end
$var wire 1 l cout_1 $end
$var wire 1 m cout_2 $end
$var wire 1 n cout_3 $end
$var wire 1 o sum $end
$var wire 1 p sum_0 $end
$upscope $end
$scope module fa_1 $end
$var wire 1 q a $end
$var wire 1 r b $end
$var wire 1 s cin $end
$var wire 1 t cout $end
$var wire 1 u cout_0 $end
$var wire 1 v cout_1 $end
$var wire 1 w cout_2 $end
$var wire 1 x cout_3 $end
$var wire 1 y sum $end
$var wire 1 z sum_0 $end
$upscope $end
$scope module fa_10 $end
$var wire 1 { a $end
$var wire 1 | b $end
$var wire 1 } cin $end
$var wire 1 ~ cout $end
$var wire 1 !" cout_0 $end
$var wire 1 "" cout_1 $end
$var wire 1 #" cout_2 $end
$var wire 1 $" cout_3 $end
$var wire 1 %" sum $end
$var wire 1 &" sum_0 $end
$upscope $end
$scope module fa_11 $end
$var wire 1 '" a $end
$var wire 1 (" b $end
$var wire 1 )" cin $end
$var wire 1 *" cout $end
$var wire 1 +" cout_0 $end
$var wire 1 ," cout_1 $end
$var wire 1 -" cout_2 $end
$var wire 1 ." cout_3 $end
$var wire 1 /" sum $end
$var wire 1 0" sum_0 $end
$upscope $end
$scope module fa_12 $end
$var wire 1 1" a $end
$var wire 1 2" b $end
$var wire 1 3" cin $end
$var wire 1 4" cout $end
$var wire 1 5" cout_0 $end
$var wire 1 6" cout_1 $end
$var wire 1 7" cout_2 $end
$var wire 1 8" cout_3 $end
$var wire 1 9" sum $end
$var wire 1 :" sum_0 $end
$upscope $end
$scope module fa_13 $end
$var wire 1 ;" a $end
$var wire 1 <" b $end
$var wire 1 =" cin $end
$var wire 1 >" cout $end
$var wire 1 ?" cout_0 $end
$var wire 1 @" cout_1 $end
$var wire 1 A" cout_2 $end
$var wire 1 B" cout_3 $end
$var wire 1 C" sum $end
$var wire 1 D" sum_0 $end
$upscope $end
$scope module fa_14 $end
$var wire 1 E" a $end
$var wire 1 F" b $end
$var wire 1 G" cin $end
$var wire 1 H" cout $end
$var wire 1 I" cout_0 $end
$var wire 1 J" cout_1 $end
$var wire 1 K" cout_2 $end
$var wire 1 L" cout_3 $end
$var wire 1 M" sum $end
$var wire 1 N" sum_0 $end
$upscope $end
$scope module fa_15 $end
$var wire 1 O" a $end
$var wire 1 P" b $end
$var wire 1 Q" cin $end
$var wire 1 R" cout $end
$var wire 1 S" cout_0 $end
$var wire 1 T" cout_1 $end
$var wire 1 U" cout_2 $end
$var wire 1 V" cout_3 $end
$var wire 1 W" sum $end
$var wire 1 X" sum_0 $end
$upscope $end
$scope module fa_16 $end
$var wire 1 Y" a $end
$var wire 1 Z" b $end
$var wire 1 [" cin $end
$var wire 1 \" cout $end
$var wire 1 ]" cout_0 $end
$var wire 1 ^" cout_1 $end
$var wire 1 _" cout_2 $end
$var wire 1 `" cout_3 $end
$var wire 1 a" sum $end
$var wire 1 b" sum_0 $end
$upscope $end
$scope module fa_17 $end
$var wire 1 c" a $end
$var wire 1 d" b $end
$var wire 1 e" cin $end
$var wire 1 f" cout $end
$var wire 1 g" cout_0 $end
$var wire 1 h" cout_1 $end
$var wire 1 i" cout_2 $end
$var wire 1 j" cout_3 $end
$var wire 1 k" sum $end
$var wire 1 l" sum_0 $end
$upscope $end
$scope module fa_18 $end
$var wire 1 m" a $end
$var wire 1 n" b $end
$var wire 1 o" cin $end
$var wire 1 p" cout $end
$var wire 1 q" cout_0 $end
$var wire 1 r" cout_1 $end
$var wire 1 s" cout_2 $end
$var wire 1 t" cout_3 $end
$var wire 1 u" sum $end
$var wire 1 v" sum_0 $end
$upscope $end
$scope module fa_19 $end
$var wire 1 w" a $end
$var wire 1 x" b $end
$var wire 1 y" cin $end
$var wire 1 z" cout $end
$var wire 1 {" cout_0 $end
$var wire 1 |" cout_1 $end
$var wire 1 }" cout_2 $end
$var wire 1 ~" cout_3 $end
$var wire 1 !# sum $end
$var wire 1 "# sum_0 $end
$upscope $end
$scope module fa_2 $end
$var wire 1 ## a $end
$var wire 1 $# b $end
$var wire 1 %# cin $end
$var wire 1 &# cout $end
$var wire 1 '# cout_0 $end
$var wire 1 (# cout_1 $end
$var wire 1 )# cout_2 $end
$var wire 1 *# cout_3 $end
$var wire 1 +# sum $end
$var wire 1 ,# sum_0 $end
$upscope $end
$scope module fa_20 $end
$var wire 1 -# a $end
$var wire 1 .# b $end
$var wire 1 /# cin $end
$var wire 1 0# cout $end
$var wire 1 1# cout_0 $end
$var wire 1 2# cout_1 $end
$var wire 1 3# cout_2 $end
$var wire 1 4# cout_3 $end
$var wire 1 5# sum $end
$var wire 1 6# sum_0 $end
$upscope $end
$scope module fa_21 $end
$var wire 1 7# a $end
$var wire 1 8# b $end
$var wire 1 9# cin $end
$var wire 1 :# cout $end
$var wire 1 ;# cout_0 $end
$var wire 1 <# cout_1 $end
$var wire 1 =# cout_2 $end
$var wire 1 ># cout_3 $end
$var wire 1 ?# sum $end
$var wire 1 @# sum_0 $end
$upscope $end
$scope module fa_22 $end
$var wire 1 A# a $end
$var wire 1 B# b $end
$var wire 1 C# cin $end
$var wire 1 D# cout $end
$var wire 1 E# cout_0 $end
$var wire 1 F# cout_1 $end
$var wire 1 G# cout_2 $end
$var wire 1 H# cout_3 $end
$var wire 1 I# sum $end
$var wire 1 J# sum_0 $end
$upscope $end
$scope module fa_23 $end
$var wire 1 K# a $end
$var wire 1 L# b $end
$var wire 1 M# cin $end
$var wire 1 N# cout $end
$var wire 1 O# cout_0 $end
$var wire 1 P# cout_1 $end
$var wire 1 Q# cout_2 $end
$var wire 1 R# cout_3 $end
$var wire 1 S# sum $end
$var wire 1 T# sum_0 $end
$upscope $end
$scope module fa_24 $end
$var wire 1 U# a $end
$var wire 1 V# b $end
$var wire 1 W# cin $end
$var wire 1 X# cout $end
$var wire 1 Y# cout_0 $end
$var wire 1 Z# cout_1 $end
$var wire 1 [# cout_2 $end
$var wire 1 \# cout_3 $end
$var wire 1 ]# sum $end
$var wire 1 ^# sum_0 $end
$upscope $end
$scope module fa_25 $end
$var wire 1 _# a $end
$var wire 1 `# b $end
$var wire 1 a# cin $end
$var wire 1 b# cout $end
$var wire 1 c# cout_0 $end
$var wire 1 d# cout_1 $end
$var wire 1 e# cout_2 $end
$var wire 1 f# cout_3 $end
$var wire 1 g# sum $end
$var wire 1 h# sum_0 $end
$upscope $end
$scope module fa_26 $end
$var wire 1 i# a $end
$var wire 1 j# b $end
$var wire 1 k# cin $end
$var wire 1 l# cout $end
$var wire 1 m# cout_0 $end
$var wire 1 n# cout_1 $end
$var wire 1 o# cout_2 $end
$var wire 1 p# cout_3 $end
$var wire 1 q# sum $end
$var wire 1 r# sum_0 $end
$upscope $end
$scope module fa_27 $end
$var wire 1 s# a $end
$var wire 1 t# b $end
$var wire 1 u# cin $end
$var wire 1 v# cout $end
$var wire 1 w# cout_0 $end
$var wire 1 x# cout_1 $end
$var wire 1 y# cout_2 $end
$var wire 1 z# cout_3 $end
$var wire 1 {# sum $end
$var wire 1 |# sum_0 $end
$upscope $end
$scope module fa_28 $end
$var wire 1 }# a $end
$var wire 1 ~# b $end
$var wire 1 !$ cin $end
$var wire 1 "$ cout $end
$var wire 1 #$ cout_0 $end
$var wire 1 $$ cout_1 $end
$var wire 1 %$ cout_2 $end
$var wire 1 &$ cout_3 $end
$var wire 1 '$ sum $end
$var wire 1 ($ sum_0 $end
$upscope $end
$scope module fa_29 $end
$var wire 1 )$ a $end
$var wire 1 *$ b $end
$var wire 1 +$ cin $end
$var wire 1 ,$ cout $end
$var wire 1 -$ cout_0 $end
$var wire 1 .$ cout_1 $end
$var wire 1 /$ cout_2 $end
$var wire 1 0$ cout_3 $end
$var wire 1 1$ sum $end
$var wire 1 2$ sum_0 $end
$upscope $end
$scope module fa_3 $end
$var wire 1 3$ a $end
$var wire 1 4$ b $end
$var wire 1 5$ cin $end
$var wire 1 6$ cout $end
$var wire 1 7$ cout_0 $end
$var wire 1 8$ cout_1 $end
$var wire 1 9$ cout_2 $end
$var wire 1 :$ cout_3 $end
$var wire 1 ;$ sum $end
$var wire 1 <$ sum_0 $end
$upscope $end
$scope module fa_30 $end
$var wire 1 =$ a $end
$var wire 1 >$ b $end
$var wire 1 ?$ cin $end
$var wire 1 @$ cout $end
$var wire 1 A$ cout_0 $end
$var wire 1 B$ cout_1 $end
$var wire 1 C$ cout_2 $end
$var wire 1 D$ cout_3 $end
$var wire 1 E$ sum $end
$var wire 1 F$ sum_0 $end
$upscope $end
$scope module fa_31 $end
$var wire 1 G$ a $end
$var wire 1 H$ b $end
$var wire 1 I$ cin $end
$var wire 1 J$ cout $end
$var wire 1 K$ cout_0 $end
$var wire 1 L$ cout_1 $end
$var wire 1 M$ cout_2 $end
$var wire 1 N$ cout_3 $end
$var wire 1 O$ sum $end
$var wire 1 P$ sum_0 $end
$upscope $end
$scope module fa_4 $end
$var wire 1 Q$ a $end
$var wire 1 R$ b $end
$var wire 1 S$ cin $end
$var wire 1 T$ cout $end
$var wire 1 U$ cout_0 $end
$var wire 1 V$ cout_1 $end
$var wire 1 W$ cout_2 $end
$var wire 1 X$ cout_3 $end
$var wire 1 Y$ sum $end
$var wire 1 Z$ sum_0 $end
$upscope $end
$scope module fa_5 $end
$var wire 1 [$ a $end
$var wire 1 \$ b $end
$var wire 1 ]$ cin $end
$var wire 1 ^$ cout $end
$var wire 1 _$ cout_0 $end
$var wire 1 `$ cout_1 $end
$var wire 1 a$ cout_2 $end
$var wire 1 b$ cout_3 $end
$var wire 1 c$ sum $end
$var wire 1 d$ sum_0 $end
$upscope $end
$scope module fa_6 $end
$var wire 1 e$ a $end
$var wire 1 f$ b $end
$var wire 1 g$ cin $end
$var wire 1 h$ cout $end
$var wire 1 i$ cout_0 $end
$var wire 1 j$ cout_1 $end
$var wire 1 k$ cout_2 $end
$var wire 1 l$ cout_3 $end
$var wire 1 m$ sum $end
$var wire 1 n$ sum_0 $end
$upscope $end
$scope module fa_7 $end
$var wire 1 o$ a $end
$var wire 1 p$ b $end
$var wire 1 q$ cin $end
$var wire 1 r$ cout $end
$var wire 1 s$ cout_0 $end
$var wire 1 t$ cout_1 $end
$var wire 1 u$ cout_2 $end
$var wire 1 v$ cout_3 $end
$var wire 1 w$ sum $end
$var wire 1 x$ sum_0 $end
$upscope $end
$scope module fa_8 $end
$var wire 1 y$ a $end
$var wire 1 z$ b $end
$var wire 1 {$ cin $end
$var wire 1 |$ cout $end
$var wire 1 }$ cout_0 $end
$var wire 1 ~$ cout_1 $end
$var wire 1 !% cout_2 $end
$var wire 1 "% cout_3 $end
$var wire 1 #% sum $end
$var wire 1 $% sum_0 $end
$upscope $end
$scope module fa_9 $end
$var wire 1 %% a $end
$var wire 1 &% b $end
$var wire 1 '% cin $end
$var wire 1 (% cout $end
$var wire 1 )% cout_0 $end
$var wire 1 *% cout_1 $end
$var wire 1 +% cout_2 $end
$var wire 1 ,% cout_3 $end
$var wire 1 -% sum $end
$var wire 1 .% sum_0 $end
$upscope $end
$scope module mux_2to1_array $end
$var wire 32 /% in0 [31:0] $end
$var wire 32 0% in1 [31:0] $end
$var wire 1 1% sel $end
$var wire 32 2% out [31:0] $end
$upscope $end
$scope module mux_4to1_array $end
$var wire 32 3% in0 [31:0] $end
$var wire 32 4% in1 [31:0] $end
$var wire 32 5% in2 [31:0] $end
$var wire 32 6% in3 [31:0] $end
$var wire 2 7% sel [1:0] $end
$var wire 32 8% out [31:0] $end
$upscope $end
$scope module shifter $end
$var wire 32 9% dataA [31:0] $end
$var wire 5 :% dataB [4:0] $end
$var wire 32 ;% dataOut [31:0] $end
$upscope $end
$upscope $end
$scope module memory $end
$var wire 1 <% MemRead $end
$var wire 1 =% MemWrite $end
$var wire 32 >% addr [31:0] $end
$var wire 1 ! clk $end
$var wire 32 ?% outrd [31:0] $end
$var wire 32 @% wd [31:0] $end
$var reg 32 A% rd [31:0] $end
$upscope $end
$scope module mul $end
$var wire 32 B% Signal [31:0] $end
$var wire 1 ! clka $end
$var wire 1 " clkb $end
$var wire 32 C% dataA [31:0] $end
$var wire 32 D% dataB [31:0] $end
$var wire 64 E% dataOut [63:0] $end
$var reg 7 F% count [6:0] $end
$var reg 64 G% mcnd [63:0] $end
$var reg 32 H% mpr [31:0] $end
$var reg 64 I% temp [63:0] $end
$upscope $end
$upscope $end
$upscope $end
$enddefinitions $end
$comment Show the parameter values. $end
$dumpall
b100010 T
b101010 S
b100101 R
b100100 Q
b100000 P
$end
#0
$dumpvars
b0 I%
bx H%
bx G%
b0 F%
b0 E%
bx D%
bx C%
bx B%
bx A%
bx @%
bx ?%
bx >%
x=%
x<%
bx ;%
bx :%
bx 9%
bx 8%
bx 7%
b0x 6%
bx 5%
bx 4%
bx 3%
b0x 2%
x1%
b1 0%
b0 /%
x.%
x-%
x,%
x+%
x*%
x)%
x(%
x'%
x&%
x%%
x$%
x#%
x"%
x!%
x~$
x}$
x|$
x{$
xz$
xy$
xx$
xw$
xv$
xu$
xt$
xs$
xr$
xq$
xp$
xo$
xn$
xm$
xl$
xk$
xj$
xi$
xh$
xg$
xf$
xe$
xd$
xc$
xb$
xa$
x`$
x_$
x^$
x]$
x\$
x[$
xZ$
xY$
xX$
xW$
xV$
xU$
xT$
xS$
xR$
xQ$
xP$
xO$
xN$
xM$
xL$
xK$
xJ$
xI$
xH$
xG$
xF$
xE$
xD$
xC$
xB$
xA$
x@$
x?$
x>$
x=$
x<$
x;$
x:$
x9$
x8$
x7$
x6$
x5$
x4$
x3$
x2$
x1$
x0$
x/$
x.$
x-$
x,$
x+$
x*$
x)$
x($
x'$
x&$
x%$
x$$
x#$
x"$
x!$
x~#
x}#
x|#
x{#
xz#
xy#
xx#
xw#
xv#
xu#
xt#
xs#
xr#
xq#
xp#
xo#
xn#
xm#
xl#
xk#
xj#
xi#
xh#
xg#
xf#
xe#
xd#
xc#
xb#
xa#
x`#
x_#
x^#
x]#
x\#
x[#
xZ#
xY#
xX#
xW#
xV#
xU#
xT#
xS#
xR#
xQ#
xP#
xO#
xN#
xM#
xL#
xK#
xJ#
xI#
xH#
xG#
xF#
xE#
xD#
xC#
xB#
xA#
x@#
x?#
x>#
x=#
x<#
x;#
x:#
x9#
x8#
x7#
x6#
x5#
x4#
x3#
x2#
x1#
x0#
x/#
x.#
x-#
x,#
x+#
x*#
x)#
x(#
x'#
x&#
x%#
x$#
x##
x"#
x!#
x~"
x}"
x|"
x{"
xz"
xy"
xx"
xw"
xv"
xu"
xt"
xs"
xr"
xq"
xp"
xo"
xn"
xm"
xl"
xk"
xj"
xi"
xh"
xg"
xf"
xe"
xd"
xc"
xb"
xa"
x`"
x_"
x^"
x]"
x\"
x["
xZ"
xY"
xX"
xW"
xV"
xU"
xT"
xS"
xR"
xQ"
xP"
xO"
xN"
xM"
xL"
xK"
xJ"
xI"
xH"
xG"
xF"
xE"
xD"
xC"
xB"
xA"
x@"
x?"
x>"
x="
x<"
x;"
x:"
x9"
x8"
x7"
x6"
x5"
x4"
x3"
x2"
x1"
x0"
x/"
x."
x-"
x,"
x+"
x*"
x)"
x("
x'"
x&"
x%"
x$"
x#"
x""
x!"
x~
x}
x|
x{
xz
xy
xx
xw
xv
xu
xt
xs
xr
xq
xp
xo
xn
xm
xl
xk
xj
xi
xh
xg
bx f
bzxxxxx e
b101010 d
bx c
bx b
bzxxxxx a
b100100 `
bx _
bx ^
bzxxxxx ]
b100101 \
bx [
bx Z
bzxxxxx Y
b100010 X
bx W
xV
bx U
bx O
bx N
bx M
bx L
bx K
b0 J
xI
xH
xG
xF
bx E
bx D
b0x C
bx B
bx A
bx @
bx ?
x>
x=
x<
bx ;
bx :
bx 9
bx 8
bx 7
bx 6
bx 5
bx 4
x3
bx 2
bx 1
bx 0
bx /
bx .
bx -
bx ,
bx +
bx *
bx )
bx (
b0 '
x&
bx %
b0 $
z#
0"
0!
$end
#1
1"
#2
0"
#3
1"
#4
b100 $
b0 ,
0"
1!
#5
1"
#6
0"
#7
1"
#8
0"
#9
1"
#10
0"
#11
1"
#12
0"
#13
1"
#14
0"
#15
1"
#16
0"
#17
1"
#18
0"
#19
1"
#20
0"
#21
1"
#22
0"
#23
1"
#24
0"
#25
1"
#26
0"
#27
1"
#28
0"
#29
1"
#30
0"
#31
1"
#32
0"
#33
1"
#34
0"
#35
1"
#36
0"
#37
1"
#38
0"
#39
1"
#40
0"
#41
1"
#42
0"
#43
1"
#44
0"
#45
1"
#46
0"
#47
1"
#48
0"
#49
1"
#50
0"
#51
1"
#52
0"
#53
1"
#54
0"
#55
1"
#56
0"
#57
1"
#58
0"
#59
1"
#60
0"
#61
1"
#62
0"
#63
1"
#64
0"
#65
1"
#66
0"
#67
1"
#68
0"
#69
1"
#70
0"
#71
1"
#72
0"
#73
1"
#74
0"
#75
1"
#76
0"
#77
1"
#78
0"
#79
1"
#80
0"
0!
#81
1"
#82
0"
#83
1"
#84
0+#
b11 M
0%#
b11 N
0t
b0 C
b0 2%
b0 6%
0w
1y
01%
0s
b11 O
b11 8%
0;$
0Y$
0c$
0m$
0w$
0#%
0-%
0%"
0/"
09"
0C"
0M"
0W"
0a"
0k"
0u"
0!#
05#
0?#
0I#
0S#
0]#
0g#
0q#
0{#
0'$
01$
0E$
0O$
0j
05$
0S$
0]$
0g$
0q$
0{$
0'%
0}
0)"
03"
0="
0G"
0Q"
0["
0e"
0o"
0y"
0/#
09#
0C#
0M#
0W#
0a#
0k#
0u#
0!$
0+$
0?$
0I$
0n
b11 B
b11 3%
1o
0&#
06$
0T$
0^$
0h$
0r$
0|$
0(%
0~
0*"
04"
0>"
0H"
0R"
0\"
0f"
0p"
0z"
00#
0:#
0D#
0N#
0X#
0b#
0l#
0v#
0"$
0,$
0@$
0J$
0k
1p
1z
0)#
0,#
09$
0<$
0W$
0Z$
0a$
0d$
0k$
0n$
0u$
0x$
0!%
0$%
0+%
0.%
0#"
0&"
0-"
00"
07"
0:"
0A"
0D"
0K"
0N"
0U"
0X"
0_"
0b"
0i"
0l"
0s"
0v"
0}"
0"#
03#
06#
0=#
0@#
0G#
0J#
0Q#
0T#
0[#
0^#
0e#
0h#
0o#
0r#
0y#
0|#
0%$
0($
0/$
02$
0C$
0F$
0M$
0P$
0h
1r
0$#
04$
0R$
0\$
0f$
0p$
0z$
0&%
0|
0("
02"
0<"
0F"
0P"
0Z"
0d"
0n"
0x"
0.#
08#
0B#
0L#
0V#
0`#
0j#
0t#
0~#
0*$
0>$
0H$
0l
0m
b10 L
0i
b10 D
b10 ;%
b0 E
b0 7%
b0 K
0=
0H
0G
0I
0F
bz11001 Y
bz11011 ]
bz11010 a
bz11011 e
0x
0*#
0:$
0X$
0b$
0l$
0v$
0"%
0,%
0$"
0."
08"
0B"
0L"
0V"
0`"
0j"
0t"
0~"
04#
0>#
0H#
0R#
0\#
0f#
0p#
0z#
0&$
00$
0D$
0N$
b10 Z
b101 ^
b100 b
b1010 f
b10 (
b10 ;
b10 9%
b11 @
b11 4%
0u
0v
0'#
0(#
07$
08$
0U$
0V$
0_$
0`$
0i$
0j$
0s$
0t$
0}$
0~$
0)%
0*%
0!"
0""
0+"
0,"
05"
06"
0?"
0@"
0I"
0J"
0S"
0T"
0]"
0^"
0g"
0h"
0q"
0r"
0{"
0|"
01#
02#
0;#
0<#
0E#
0F#
0O#
0P#
0Y#
0Z#
0c#
0d#
0m#
0n#
0w#
0x#
0#$
0$$
0-$
0.$
0A$
0B$
0K$
0L$
b0 A
b0 5%
b1000 $
1<
1g
0q
0##
03$
0Q$
0[$
0e$
0o$
0y$
0%%
0{
0'"
01"
0;"
0E"
0O"
0Y"
0c"
0m"
0w"
0-#
07#
0A#
0K#
0U#
0_#
0i#
0s#
0}#
0)$
0=$
0G$
b0 -
b11000 ,
b11111111111111111100000000100000 0
b100000 *
b100000 8
b100000 W
b100000 [
b100000 _
b100000 c
b0 7
b0 ?
b0 :%
b10 5
b10 D%
b1 9
b1 4
b1 :
b1 C%
b1000101100000000100000 B%
0"
1!
#85
1"
#86
0"
#87
1"
#88
0"
#89
1"
#90
0"
#91
1"
#92
0"
#93
1"
#94
0"
#95
1"
#96
0"
#97
1"
#98
0"
#99
1"
#100
0"
#101
1"
#102
0"
#103
1"
#104
0"
#105
1"
#106
0"
#107
1"
#108
0"
#109
1"
#110
0"
#111
1"
#112
0"
#113
1"
#114
0"
#115
1"
#116
0"
#117
1"
#118
0"
#119
1"
#120
0"
#121
1"
#122
0"
#123
1"
#124
0"
#125
1"
#126
0"
#127
1"
#128
0"
#129
1"
#130
0"
#131
1"
#132
0"
#133
1"
#134
0"
#135
1"
#136
0"
#137
1"
#138
0"
#139
1"
#140
0"
#141
1"
#142
0"
#143
1"
#144
0"
#145
1"
#146
0"
#147
1"
#148
0"
#149
1"
#150
0"
#151
1"
#152
0"
#153
1"
#154
0"
#155
1"
#156
0"
#157
1"
#158
0"
#159
1"
#160
b100 $
0"
0!
#161
1"
#162
0"
#163
1"
#164
b0 D
b0 ;%
b0 N
0y
0z
0r
b0 O
b0 8%
0>
bz11101 Y
bz11111 ]
bz11110 a
bz11111 e
b0 L
b0 M
b0 B
b0 3%
0o
b100010 Z
b100101 ^
b100100 b
b101010 f
b0 (
b0 ;
b0 9%
0p
b0 @
b0 4%
b1000 $
0<%
0=%
0<
0g
0&
0V
b11 )
b11 U
b11 >%
b11111111111111111100000000100000 1
b10 6
b10 @%
b0 .
b11000 -
b0 ,
b0 0
b0 *
b0 8
b0 W
b0 [
b0 _
b0 c
b0 5
b0 D%
b0 9
b0 4
b0 :
b0 C%
b0 B%
0"
1!
#165
1"
#166
0"
#167
1"
#168
0"
#169
1"
#170
0"
#171
1"
#172
0"
#173
1"
#174
0"
#175
1"
#176
0"
#177
1"
#178
0"
#179
1"
#180
0"
#181
1"
#182
0"
#183
1"
#184
0"
#185
1"
#186
0"
#187
1"
#188
0"
#189
1"
#190
0"
#191
1"
#192
0"
#193
1"
#194
0"
#195
1"
#196
0"
#197
1"
#198
0"
#199
1"
#200
0"
#201
1"
#202
0"
#203
1"
#204
0"
#205
1"
#206
0"
#207
1"
#208
0"
#209
1"
#210
0"
#211
1"
#212
0"
#213
1"
#214
0"
#215
1"
#216
0"
#217
1"
#218
0"
#219
1"
#220
0"
#221
1"
#222
0"
#223
1"
#224
0"
#225
1"
#226
0"
#227
1"
#228
0"
#229
1"
#230
0"
#231
1"
#232
0"
#233
1"
#234
0"
#235
1"
#236
0"
#237
1"
#238
0"
#239
1"
#240
b100 $
0"
0!
#241
1"
#242
0"
#243
1"
#244
b1000 $
03
b11111111111111111100000000100000 2
b11 +
b0 1
b0 6
b0 @%
b0 /
b11000 .
b0 -
1&
1V
b0 )
b0 U
b0 >%
0"
1!
#245
1"
#246
0"
#247
1"
#248
0"
#249
1"
#250
0"
#251
1"
#252
0"
#253
1"
#254
0"
#255
1"
#256
0"
#257
1"
#258
0"
#259
1"
#260
0"
#261
1"
#262
0"
#263
1"
#264
0"
#265
1"
#266
0"
#267
1"
#268
0"
#269
1"
#270
0"
#271
1"
#272
0"
#273
1"
#274
0"
#275
1"
#276
0"
#277
1"
#278
0"
#279
1"
#280
0"
#281
1"
#282
0"
#283
1"
#284
0"
#285
1"
#286
0"
#287
1"
#288
0"
#289
1"
#290
0"
#291
1"
#292
0"
#293
1"
#294
0"
#295
1"
#296
0"
#297
1"
#298
0"
#299
1"
#300
0"
#301
1"
#302
0"
#303
1"
#304
0"
#305
1"
#306
0"
#307
1"
#308
0"
#309
1"
#310
0"
#311
1"
#312
0"
#313
1"
#314
0"
#315
1"
#316
0"
#317
1"
#318
0"
#319
1"
#320
b100 $
0"
0!
#321
1"
#322
0"
#323
1"
#324
b1000 $
13
b0 2
b0 +
b11000 /
b0 .
0"
1!
